{
  "project_info": {
    "project_number": "93798030456",
    "project_id": "zivototekrug-b030d",
    "storage_bucket": "zivototekrug-b030d.appspot.com"
  },
  "client": [
    {
      "client_info": {
        "mobilesdk_app_id": "1:93798030456:android:d1abe848385c1dbb23618d",
        "android_client_info": {
          "package_name": "com.example.zhivototekrug"
        }
      },
      "oauth_client": [
        {
          "client_id": "93798030456-oq1runesa470c5a74qko3mfqmaj5o50e.apps.googleusercontent.com",
          "client_type": 3
        }
      ],
      "api_key": [
        {
          "current_key": "AIzaSyD3aWsgl7uYiRsYxYhxvpKGK7R5Uagb65A"
        }
      ],
      "services": {
        "appinvite_service": {
          "other_platform_oauth_client": [
            {
              "client_id": "93798030456-oq1runesa470c5a74qko3mfqmaj5o50e.apps.googleusercontent.com",
              "client_type": 3
            }
          ]
        }
      }
    }
  ],
  "configuration_version": "1"
}